<svg width="20" height="20" viewBox="0 0 24 24" xmlns="http://www.w3.org/2000/svg" xmlns:xlink="http://www.w3.org/1999/xlink">
    <defs>
        <path d="M19.313 3H4.688C3.756 3 3 3.756 3 4.688v14.625C3 20.244 3.756 21 4.688 21h14.625c.931 0 1.687-.756 1.687-1.688V4.688C21 3.756 20.244 3 19.312 3zm.562 16.313c0 .31-.252.562-.563.562H4.688a.562.562 0 0 1-.562-.563V4.688c0-.31.252-.562.563-.562h14.625c.31 0 .562.252.562.563v14.625zm-4.663-6.587a.562.562 0 0 0-.793 0l-1.294 1.293-2.413-2.413a.562.562 0 0 0-.793 0L5.98 15.544a.562.562 0 0 0 .394.956h11.25a.563.563 0 0 0 .4-.962l-2.813-2.812zM13.688 7.5a1.688 1.688 0 1 0 0 3.375 1.688 1.688 0 0 0 0-3.375z" id="a"/>
    </defs>
    <g fill="none" fill-rule="evenodd">
        <mask id="b" fill="#fff">
            <use xlink:href="#a"/>
        </mask>
        <use fill="#000" fill-rule="nonzero" xlink:href="#a"/>
        <g mask="url(#b)" fill="#34495E"><path d="M0 0h24v24H0z"/></g>
    </g>
</svg>